Library\Bee\artifacts\mvdfrm\UnityEngine.UI.ref.dll_FAE6DBEA21006BE5.mvfrm
Library\Bee\artifacts\mvdfrm\Unity.Burst.Cecil.dll_2B1F167EBEE0B2B0.mvfrm
Library\Bee\artifacts\mvdfrm\Unity.Burst.Cecil.Mdb.dll_114C936BA00F21ED.mvfrm
Library\Bee\artifacts\mvdfrm\Unity.Burst.Cecil.Pdb.dll_289F0BDB1EC42370.mvfrm
Library\Bee\artifacts\mvdfrm\Unity.Burst.Cecil.Rocks.dll_82DD71F122827190.mvfrm
Library\Bee\artifacts\mvdfrm\Unity.Burst.Unsafe.dll_4FC7DBD5562528E3.mvfrm
Library\Bee\artifacts\mvdfrm\Unity.VisualScripting.Antlr3.Runtime.dll_65257451587CD6AB.mvfrm
Library\Bee\artifacts\mvdfrm\UnityEngine.AccessibilityModule.dll_3F1B6D34FDAB7662.mvfrm
Library\Bee\artifacts\mvdfrm\UnityEngine.AIModule.dll_1EC8050EB970CC78.mvfrm
Library\Bee\artifacts\mvdfrm\UnityEngine.AndroidJNIModule.dll_1D4A0E2FB6FDCE36.mvfrm
Library\Bee\artifacts\mvdfrm\UnityEngine.AnimationModule.dll_9CDCBC5B6DC0EC88.mvfrm
Library\Bee\artifacts\mvdfrm\UnityEngine.ARModule.dll_D83ACA12168E2B41.mvfrm
Library\Bee\artifacts\mvdfrm\UnityEngine.AssetBundleModule.dll_628DC0AD06ED64B6.mvfrm
Library\Bee\artifacts\mvdfrm\UnityEngine.AudioModule.dll_EE53D77FAB7FEB7A.mvfrm
Library\Bee\artifacts\mvdfrm\UnityEngine.ClothModule.dll_553C347A859CCA5E.mvfrm
Library\Bee\artifacts\mvdfrm\UnityEngine.ClusterInputModule.dll_6C6DE89C685DBE20.mvfrm
Library\Bee\artifacts\mvdfrm\UnityEngine.ClusterRendererModule.dll_02B22576C0216DE1.mvfrm
Library\Bee\artifacts\mvdfrm\UnityEngine.CoreModule.dll_1F0A23465BA555CF.mvfrm
Library\Bee\artifacts\mvdfrm\UnityEngine.CrashReportingModule.dll_99D4206DE90A20C7.mvfrm
Library\Bee\artifacts\mvdfrm\UnityEngine.DirectorModule.dll_5B6256275DC11FAC.mvfrm
Library\Bee\artifacts\mvdfrm\UnityEngine.dll_42A6DB93E7A2CA96.mvfrm
Library\Bee\artifacts\mvdfrm\UnityEngine.DSPGraphModule.dll_60B3B790D021F0CD.mvfrm
Library\Bee\artifacts\mvdfrm\UnityEngine.GameCenterModule.dll_4797584A7D3EBF27.mvfrm
Library\Bee\artifacts\mvdfrm\UnityEngine.GIModule.dll_B7044E1C551FB492.mvfrm
Library\Bee\artifacts\mvdfrm\UnityEngine.GridModule.dll_FC7B3F3473F9EBC6.mvfrm
Library\Bee\artifacts\mvdfrm\UnityEngine.HotReloadModule.dll_1E257A6148F4080A.mvfrm
Library\Bee\artifacts\mvdfrm\UnityEngine.ImageConversionModule.dll_6EA42327424625D5.mvfrm
Library\Bee\artifacts\mvdfrm\UnityEngine.IMGUIModule.dll_26B376E671B17F5B.mvfrm
Library\Bee\artifacts\mvdfrm\UnityEngine.InputLegacyModule.dll_F3D2DBCB9EDF1AA7.mvfrm
Library\Bee\artifacts\mvdfrm\UnityEngine.InputModule.dll_54C99F3021B8101E.mvfrm
Library\Bee\artifacts\mvdfrm\UnityEngine.JSONSerializeModule.dll_9F32F670FCE6D6EC.mvfrm
Library\Bee\artifacts\mvdfrm\UnityEngine.LocalizationModule.dll_AABAB2EEFFD9B119.mvfrm
Library\Bee\artifacts\mvdfrm\UnityEngine.ParticleSystemModule.dll_ECE669BA571BAC55.mvfrm
Library\Bee\artifacts\mvdfrm\UnityEngine.PerformanceReportingModule.dll_94620B605CD8798E.mvfrm
Library\Bee\artifacts\mvdfrm\UnityEngine.Physics2DModule.dll_E982AC4C0EBDE41D.mvfrm
Library\Bee\artifacts\mvdfrm\UnityEngine.PhysicsModule.dll_42D29F0CF767298B.mvfrm
Library\Bee\artifacts\mvdfrm\UnityEngine.ProfilerModule.dll_8DA88F5DF71AA6B9.mvfrm
Library\Bee\artifacts\mvdfrm\UnityEngine.RuntimeInitializeOnLoadManagerInitializerModule.dll_2887FBEB01330EE6.mvfrm
Library\Bee\artifacts\mvdfrm\UnityEngine.ScreenCaptureModule.dll_B91AA3F61153034E.mvfrm
Library\Bee\artifacts\mvdfrm\UnityEngine.SharedInternalsModule.dll_F2B561FCB9742125.mvfrm
Library\Bee\artifacts\mvdfrm\UnityEngine.SpriteMaskModule.dll_30C3CADA9EAE54A1.mvfrm
Library\Bee\artifacts\mvdfrm\UnityEngine.SpriteShapeModule.dll_7BEEEE07BC8F9CC0.mvfrm
Library\Bee\artifacts\mvdfrm\UnityEngine.StreamingModule.dll_5171A9ABBD48A3C6.mvfrm
Library\Bee\artifacts\mvdfrm\UnityEngine.SubstanceModule.dll_2E1CBDF5089BA1D4.mvfrm
Library\Bee\artifacts\mvdfrm\UnityEngine.SubsystemsModule.dll_9B71313C6CF63CB4.mvfrm
Library\Bee\artifacts\mvdfrm\UnityEngine.TerrainModule.dll_5D191A7BCD257279.mvfrm
Library\Bee\artifacts\mvdfrm\UnityEngine.TerrainPhysicsModule.dll_ED61128D705EA6E2.mvfrm
Library\Bee\artifacts\mvdfrm\UnityEngine.TextCoreFontEngineModule.dll_A66E8B87E8EE326D.mvfrm
Library\Bee\artifacts\mvdfrm\UnityEngine.TextCoreTextEngineModule.dll_EE56C1F97871EB8B.mvfrm
Library\Bee\artifacts\mvdfrm\UnityEngine.TextRenderingModule.dll_E25A1600C88A8343.mvfrm
Library\Bee\artifacts\mvdfrm\UnityEngine.TilemapModule.dll_FC1581FCE4E25382.mvfrm
Library\Bee\artifacts\mvdfrm\UnityEngine.TLSModule.dll_FD1C3EF3FFD79F9F.mvfrm
Library\Bee\artifacts\mvdfrm\UnityEngine.UIElementsModule.dll_9FAF92A4702278AB.mvfrm
Library\Bee\artifacts\mvdfrm\UnityEngine.UIElementsNativeModule.dll_316DB3C8DF1EE322.mvfrm
Library\Bee\artifacts\mvdfrm\UnityEngine.UIModule.dll_1A3BA33C15B7D224.mvfrm
Library\Bee\artifacts\mvdfrm\UnityEngine.UmbraModule.dll_6928839838A696ED.mvfrm
Library\Bee\artifacts\mvdfrm\UnityEngine.UNETModule.dll_B1B06B2FA8B44B48.mvfrm
Library\Bee\artifacts\mvdfrm\UnityEngine.UnityAnalyticsCommonModule.dll_2FA0C8A476C117EC.mvfrm
Library\Bee\artifacts\mvdfrm\UnityEngine.UnityAnalyticsModule.dll_0C85DA840342FE51.mvfrm
Library\Bee\artifacts\mvdfrm\UnityEngine.UnityConnectModule.dll_DA30F795B15DEC05.mvfrm
Library\Bee\artifacts\mvdfrm\UnityEngine.UnityCurlModule.dll_CFF95D8CDDD4DE75.mvfrm
Library\Bee\artifacts\mvdfrm\UnityEngine.UnityTestProtocolModule.dll_DC5E6D5F7BFB2D63.mvfrm
Library\Bee\artifacts\mvdfrm\UnityEngine.UnityWebRequestAssetBundleModule.dll_DB05BABBDCC3F5E2.mvfrm
Library\Bee\artifacts\mvdfrm\UnityEngine.UnityWebRequestAudioModule.dll_0C5E5F3EE3434426.mvfrm
Library\Bee\artifacts\mvdfrm\UnityEngine.UnityWebRequestModule.dll_80432AD14D3AC054.mvfrm
Library\Bee\artifacts\mvdfrm\UnityEngine.UnityWebRequestTextureModule.dll_E9594888F43E7ABB.mvfrm
Library\Bee\artifacts\mvdfrm\UnityEngine.UnityWebRequestWWWModule.dll_B91907556831A7F7.mvfrm
Library\Bee\artifacts\mvdfrm\UnityEngine.VehiclesModule.dll_D3254FA6D7EAEF47.mvfrm
Library\Bee\artifacts\mvdfrm\UnityEngine.VFXModule.dll_7DFAD762D645090C.mvfrm
Library\Bee\artifacts\mvdfrm\UnityEngine.VideoModule.dll_135D5BEA6E12071F.mvfrm
Library\Bee\artifacts\mvdfrm\UnityEngine.VirtualTexturingModule.dll_55FA6837B7CD63AD.mvfrm
Library\Bee\artifacts\mvdfrm\UnityEngine.VRModule.dll_6D0DC9C1B772579C.mvfrm
Library\Bee\artifacts\mvdfrm\UnityEngine.WindModule.dll_9558FE6EECDBD438.mvfrm
Library\Bee\artifacts\mvdfrm\UnityEngine.XRModule.dll_9FCC8CC640ACA4FA.mvfrm