Library\Bee\artifacts\mvdfrm\UnityEditor.Graphs.dll_5322F7AE67D45B7C.mvfrm
Library\Bee\artifacts\mvdfrm\UnityEditor.CoreModule.dll_A464DEA9EC499B4A.mvfrm
Library\Bee\artifacts\mvdfrm\UnityEditor.DeviceSimulatorModule.dll_7DCD3EA1F593DA97.mvfrm
Library\Bee\artifacts\mvdfrm\UnityEditor.DiagnosticsModule.dll_63BA052C7F850F25.mvfrm
Library\Bee\artifacts\mvdfrm\UnityEditor.dll_278CE144B2126C2B.mvfrm
Library\Bee\artifacts\mvdfrm\UnityEditor.GraphViewModule.dll_0188F6337140405C.mvfrm
Library\Bee\artifacts\mvdfrm\UnityEditor.PackageManagerUIModule.dll_AAE56C561B873026.mvfrm
Library\Bee\artifacts\mvdfrm\UnityEditor.QuickSearchModule.dll_EEC98639D85C0B7E.mvfrm
Library\Bee\artifacts\mvdfrm\UnityEditor.SceneTemplateModule.dll_45ED17E6F1D6C5BF.mvfrm
Library\Bee\artifacts\mvdfrm\UnityEditor.TextCoreFontEngineModule.dll_F61811318B82F188.mvfrm
Library\Bee\artifacts\mvdfrm\UnityEditor.TextCoreTextEngineModule.dll_3E0047A31B06AAA6.mvfrm
Library\Bee\artifacts\mvdfrm\UnityEditor.UIBuilderModule.dll_5611A34FE3F8B990.mvfrm
Library\Bee\artifacts\mvdfrm\UnityEditor.UIElementsModule.dll_E221100694616A46.mvfrm
Library\Bee\artifacts\mvdfrm\UnityEditor.UIElementsSamplesModule.dll_66C3BFB07C063D87.mvfrm
Library\Bee\artifacts\mvdfrm\UnityEditor.UIServiceModule.dll_8F03B4B2CD3009AA.mvfrm
Library\Bee\artifacts\mvdfrm\UnityEditor.UnityConnectModule.dll_392C06FB2221EF00.mvfrm
Library\Bee\artifacts\mvdfrm\UnityEngine.AccessibilityModule.dll_7892837DF24CED5C.mvfrm
Library\Bee\artifacts\mvdfrm\UnityEngine.AIModule.dll_271C64D020DDE45E.mvfrm
Library\Bee\artifacts\mvdfrm\UnityEngine.AndroidJNIModule.dll_6069F8D9DD80D91C.mvfrm
Library\Bee\artifacts\mvdfrm\UnityEngine.AnimationModule.dll_D00E725C4B9D1502.mvfrm
Library\Bee\artifacts\mvdfrm\UnityEngine.ARModule.dll_E08F29D37DFB4327.mvfrm
Library\Bee\artifacts\mvdfrm\UnityEngine.AssetBundleModule.dll_32B2B92B3AC2C070.mvfrm
Library\Bee\artifacts\mvdfrm\UnityEngine.AudioModule.dll_25164A95204E6574.mvfrm
Library\Bee\artifacts\mvdfrm\UnityEngine.ClothModule.dll_8BFEA78FFA6B4458.mvfrm
Library\Bee\artifacts\mvdfrm\UnityEngine.ClusterInputModule.dll_B8C87C10D3A9C1C6.mvfrm
Library\Bee\artifacts\mvdfrm\UnityEngine.ClusterRendererModule.dll_837A0113654EE81B.mvfrm
Library\Bee\artifacts\mvdfrm\UnityEngine.CoreModule.dll_C785B1FC944F0675.mvfrm
Library\Bee\artifacts\mvdfrm\UnityEngine.CrashReportingModule.dll_017E37B6DB89B52D.mvfrm
Library\Bee\artifacts\mvdfrm\UnityEngine.DirectorModule.dll_269E91C1AA82C9D2.mvfrm
Library\Bee\artifacts\mvdfrm\UnityEngine.dll_5A31281D1085F910.mvfrm
Library\Bee\artifacts\mvdfrm\UnityEngine.DSPGraphModule.dll_2BEFF32B1CE39AF3.mvfrm
Library\Bee\artifacts\mvdfrm\UnityEngine.GameCenterModule.dll_8AB742F4A3C1CA0D.mvfrm
Library\Bee\artifacts\mvdfrm\UnityEngine.GIModule.dll_BF58ADDDBC8CCC78.mvfrm
Library\Bee\artifacts\mvdfrm\UnityEngine.GridModule.dll_A4F6CDEAACA39C6C.mvfrm
Library\Bee\artifacts\mvdfrm\UnityEngine.HotReloadModule.dll_5157306226D03084.mvfrm
Library\Bee\artifacts\mvdfrm\UnityEngine.ImageConversionModule.dll_EF6BFEC3E773A00F.mvfrm
Library\Bee\artifacts\mvdfrm\UnityEngine.IMGUIModule.dll_5D75E9FBE67FF955.mvfrm
Library\Bee\artifacts\mvdfrm\UnityEngine.InputLegacyModule.dll_C3F7D449D2B47661.mvfrm
Library\Bee\artifacts\mvdfrm\UnityEngine.InputModule.dll_8B8C124596868A18.mvfrm
Library\Bee\artifacts\mvdfrm\UnityEngine.JSONSerializeModule.dll_D8AA0CB9F1884DE6.mvfrm
Library\Bee\artifacts\mvdfrm\UnityEngine.LocalizationModule.dll_F71546636B25B4BF.mvfrm
Library\Bee\artifacts\mvdfrm\UnityEngine.ParticleSystemModule.dll_54908103499B40BB.mvfrm
Library\Bee\artifacts\mvdfrm\UnityEngine.PerformanceReportingModule.dll_A7033CE130F05034.mvfrm
Library\Bee\artifacts\mvdfrm\UnityEngine.Physics2DModule.dll_1CB4624CEC9A0C97.mvfrm
Library\Bee\artifacts\mvdfrm\UnityEngine.PhysicsModule.dll_97BE10CB40D006C5.mvfrm
Library\Bee\artifacts\mvdfrm\UnityEngine.ProfilerModule.dll_58E4CAF843DC50DF.mvfrm
Library\Bee\artifacts\mvdfrm\UnityEngine.RuntimeInitializeOnLoadManagerInitializerModule.dll_DE58520E6D6F2B60.mvfrm
Library\Bee\artifacts\mvdfrm\UnityEngine.ScreenCaptureModule.dll_F291BA3F05F47A48.mvfrm
Library\Bee\artifacts\mvdfrm\UnityEngine.SharedInternalsModule.dll_737D3D995EA19B5F.mvfrm
Library\Bee\artifacts\mvdfrm\UnityEngine.SpriteMaskModule.dll_73E3B584C5315F87.mvfrm
Library\Bee\artifacts\mvdfrm\UnityEngine.SpriteShapeModule.dll_4C13E685F064F87A.mvfrm
Library\Bee\artifacts\mvdfrm\UnityEngine.StreamingModule.dll_84A35FAC9B24CC40.mvfrm
Library\Bee\artifacts\mvdfrm\UnityEngine.SubstanceModule.dll_614E73F5E677CA4E.mvfrm
Library\Bee\artifacts\mvdfrm\UnityEngine.SubsystemsModule.dll_DE911BE69379479A.mvfrm
Library\Bee\artifacts\mvdfrm\UnityEngine.TerrainModule.dll_B2048C3A168E4FB3.mvfrm
Library\Bee\artifacts\mvdfrm\UnityEngine.TerrainPhysicsModule.dll_550B29D662DE3B48.mvfrm
Library\Bee\artifacts\mvdfrm\UnityEngine.TextCoreFontEngineModule.dll_74778C849E80B053.mvfrm
Library\Bee\artifacts\mvdfrm\UnityEngine.TextCoreTextEngineModule.dll_BC5FC2F62E046971.mvfrm
Library\Bee\artifacts\mvdfrm\UnityEngine.TextRenderingModule.dll_1BD12C49BD2BFA3D.mvfrm
Library\Bee\artifacts\mvdfrm\UnityEngine.TilemapModule.dll_5100F3BB2E4B30BC.mvfrm
Library\Bee\artifacts\mvdfrm\UnityEngine.TLSModule.dll_B5D1AEF251D79E59.mvfrm
Library\Bee\artifacts\mvdfrm\UnityEngine.UIElementsModule.dll_E2CF7D4E96A58391.mvfrm
Library\Bee\artifacts\mvdfrm\UnityEngine.UIElementsNativeModule.dll_F55F20EB8CFFA048.mvfrm
Library\Bee\artifacts\mvdfrm\UnityEngine.UIModule.dll_229002FD7D24EA0A.mvfrm
Library\Bee\artifacts\mvdfrm\UnityEngine.UmbraModule.dll_9FEAF6ADAD7510E7.mvfrm
Library\Bee\artifacts\mvdfrm\UnityEngine.UNETModule.dll_5A2BF9E5E15DFBEE.mvfrm
Library\Bee\artifacts\mvdfrm\UnityEngine.UnityAnalyticsCommonModule.dll_4241FA254AD8EE92.mvfrm
Library\Bee\artifacts\mvdfrm\UnityEngine.UnityAnalyticsModule.dll_742FF1CCF5C292B7.mvfrm
Library\Bee\artifacts\mvdfrm\UnityEngine.UnityConnectModule.dll_268B8B0A1CA9EFAB.mvfrm
Library\Bee\artifacts\mvdfrm\UnityEngine.UnityCurlModule.dll_032B138DBBB106EF.mvfrm
Library\Bee\artifacts\mvdfrm\UnityEngine.UnityTestProtocolModule.dll_228675A2D60192DD.mvfrm
Library\Bee\artifacts\mvdfrm\UnityEngine.UnityWebRequestAssetBundleModule.dll_D54EDA7F6E1F66C8.mvfrm
Library\Bee\artifacts\mvdfrm\UnityEngine.UnityWebRequestAudioModule.dll_1EFF90BFB75B1ACC.mvfrm
Library\Bee\artifacts\mvdfrm\UnityEngine.UnityWebRequestModule.dll_010B066DF2683A8E.mvfrm
Library\Bee\artifacts\mvdfrm\UnityEngine.UnityWebRequestTextureModule.dll_273826C886924221.mvfrm
Library\Bee\artifacts\mvdfrm\UnityEngine.UnityWebRequestWWWModule.dll_872208521DC425DD.mvfrm
Library\Bee\artifacts\mvdfrm\UnityEngine.VehiclesModule.dll_9E618B4124AC996D.mvfrm
Library\Bee\artifacts\mvdfrm\UnityEngine.VFXModule.dll_36B04761284507C6.mvfrm
Library\Bee\artifacts\mvdfrm\UnityEngine.VideoModule.dll_4A1FCEFFE2E08119.mvfrm
Library\Bee\artifacts\mvdfrm\UnityEngine.VirtualTexturingModule.dll_19EBD55A65AE20D3.mvfrm
Library\Bee\artifacts\mvdfrm\UnityEngine.VRModule.dll_756229831EDF6F82.mvfrm
Library\Bee\artifacts\mvdfrm\UnityEngine.WindModule.dll_3DD48D25258584DE.mvfrm
Library\Bee\artifacts\mvdfrm\UnityEngine.XRModule.dll_A820EC87A819BCE0.mvfrm
Library\Bee\artifacts\mvdfrm\UnityEditor.WindowsStandalone.Extensions.dll_9D5258E2326584F6.mvfrm