{
    "name": "root",
    "metadata": {
        "timer_format_version": "0.1.0",
        "start_time_seconds": "1701325450",
        "python_version": "3.9.13 (tags/v3.9.13:6de2ca5, May 17 2022, 16:36:42) [MSC v.1929 64 bit (AMD64)]",
        "command_line_arguments": "C:\\Users\\User\\AppData\\Local\\Programs\\Python\\Python39\\Scripts\\mlagents-learn results\\cooperation2\\cooperation.yaml --run-id=cooperation2",
        "mlagents_version": "0.30.0",
        "mlagents_envs_version": "0.30.0",
        "communication_protocol_version": "1.5.0",
        "pytorch_version": "2.0.1+cpu",
        "numpy_version": "1.21.2",
        "end_time_seconds": "1701325454"
    },
    "total": 4.105137299999999,
    "count": 1,
    "self": 0.006847099999998996,
    "children": {
        "run_training.setup": {
            "total": 0.10451760000000032,
            "count": 1,
            "self": 0.10451760000000032
        },
        "TrainerController.start_learning": {
            "total": 3.9937726,
            "count": 1,
            "self": 0.0014480999999997302,
            "children": {
                "TrainerController._reset_env": {
                    "total": 3.9922748,
                    "count": 1,
                    "self": 3.9922748
                },
                "trainer_threads": {
                    "total": 7.300000000043383e-06,
                    "count": 1,
                    "self": 7.300000000043383e-06
                },
                "TrainerController._save_models": {
                    "total": 4.239999999988697e-05,
                    "count": 1,
                    "self": 4.239999999988697e-05
                }
            }
        }
    }
}